	year	month	location	sku_id	volume	optimal_price
0	2019	07	Alpha City	sku #79	7723.559023111126	1.2763289869608776
1	2019	08	Alpha City	sku #79	6916.847112698463	1.2763289869608776
2	2019	09	Alpha City	sku #79	6640.127013441547	1.2763289869608776
3	2019	07	Pirate Bay	sku #79	4418.910570898811	1.2763289869608776
4	2019	08	Pirate Bay	sku #79	4152.895170218412	1.2763289869608776
5	2019	09	Pirate Bay	sku #79	3713.8568864236886	1.2763289869608776
6	2019	07	Moon	sku #79	2738.427808442254	1.532943355057015
7	2019	08	Moon	sku #79	2714.3240313754022	1.5323274001226685
8	2019	09	Moon	sku #79	2558.996670397769	1.5283581092395628
9	2019	07	Alpha City	sku #15	8549.878986478343	1.3390170511534552
10	2019	08	Alpha City	sku #15	7743.1670760656825	1.3390170511534552
11	2019	09	Alpha City	sku #15	7466.446976808765	1.3390170511534552
12	2019	07	Pirate Bay	sku #15	5245.23053426603	1.3390170511534552
13	2019	08	Pirate Bay	sku #15	4979.2151335856315	1.3390170511534552
14	2019	09	Pirate Bay	sku #15	4540.176849790908	1.3390170511534552
15	2019	07	Alpha City	sku #16	10710.75214763292	3.4152457372116194
16	2019	08	Alpha City	sku #16	9904.040237220259	3.4152457372116194
17	2019	09	Alpha City	sku #16	9627.320137963343	3.4152457372116194
18	2019	07	Pirate Bay	sku #16	7406.103695420609	3.4152457372116194
19	2019	08	Pirate Bay	sku #16	7140.088294740209	3.4152457372116194
20	2019	09	Pirate Bay	sku #16	6701.050010945487	3.4152457372116194
21	2019	07	Moon	sku #16	5773.780253512546	3.490937276413072
22	2019	08	Moon	sku #16	5749.676476445692	3.490937276413072
23	2019	09	Moon	sku #16	5594.3491154680605	3.490937276413072
24	2019	07	Alpha City	sku #22	9666.85206978047	2.4122367101303817
25	2019	08	Alpha City	sku #22	8860.14015936781	2.4122367101303817
26	2019	09	Alpha City	sku #22	8583.42006011089	2.4122367101303817
27	2019	07	Pirate Bay	sku #22	6362.203617568156	2.4122367101303817
28	2019	08	Pirate Bay	sku #22	6096.188216887757	2.4122367101303817
29	2019	09	Pirate Bay	sku #22	5657.149933093034	2.4122367101303817
30	2019	07	Moon	sku #22	4706.452797332896	2.465418554734084
31	2019	08	Moon	sku #22	4682.349020266042	2.465418554734084
32	2019	09	Moon	sku #22	4527.021659288411	2.465418554734084
33	2019	07	Alpha City	sku #28	10710.75214763292	3.4152457372116194
34	2019	08	Alpha City	sku #28	9904.040237220259	3.4152457372116194
35	2019	09	Alpha City	sku #28	9627.320137963343	3.4152457372116194
36	2019	07	Pirate Bay	sku #28	7406.103695420609	3.4152457372116194
37	2019	08	Pirate Bay	sku #28	7140.088294740209	3.4152457372116194
38	2019	09	Pirate Bay	sku #28	6701.050010945487	3.4152457372116194
39	2019	07	Moon	sku #28	5773.780253512546	3.490937276413072
40	2019	08	Moon	sku #28	5749.676476445692	3.490937276413072
41	2019	09	Moon	sku #28	5594.3491154680605	3.490937276413072
42	2019	07	Alpha City	sku #30	8549.878986478343	1.3390170511534552
43	2019	08	Alpha City	sku #30	7743.1670760656825	1.3390170511534552
44	2019	09	Alpha City	sku #30	7466.446976808765	1.3390170511534552
45	2019	07	Pirate Bay	sku #30	5245.23053426603	1.3390170511534552
46	2019	08	Pirate Bay	sku #30	4979.2151335856315	1.3390170511534552
47	2019	09	Pirate Bay	sku #30	4540.176849790908	1.3390170511534552
48	2019	07	Moon	sku #30	3564.660634908151	1.368352015263536
49	2019	08	Moon	sku #30	3540.5568578412976	1.368352015263536
50	2019	09	Moon	sku #30	3385.229496863666	1.368352015263536
51	2019	07	Alpha City	sku #31	4775.495869062405	1.3390170511534552
52	2019	08	Alpha City	sku #31	3968.783958649744	1.3390170511534552
53	2019	09	Alpha City	sku #31	3692.063859392826	1.3390170511534552
54	2019	07	Alpha City	sku #38	6137.345958650742	1.3390170511534552
55	2019	08	Alpha City	sku #38	5330.634048238081	1.3390170511534552
56	2019	09	Alpha City	sku #38	5053.913948981163	1.3390170511534552
57	2019	07	Pirate Bay	sku #38	2832.6975064384287	1.5680020058458057
58	2019	08	Pirate Bay	sku #38	2566.68210575803	1.5612485251481802
59	2019	09	Pirate Bay	sku #38	2127.6438219633064	1.550102408103662
60	2019	07	Alpha City	sku #41	8549.878986478343	1.3390170511534552
61	2019	08	Alpha City	sku #41	7743.1670760656825	1.3390170511534552
62	2019	09	Alpha City	sku #41	7466.446976808765	1.3390170511534552
63	2019	07	Pirate Bay	sku #41	5245.23053426603	1.3390170511534552
64	2019	08	Pirate Bay	sku #41	4979.2151335856315	1.3390170511534552
65	2019	09	Pirate Bay	sku #41	4540.176849790908	1.3390170511534552
66	2019	07	Moon	sku #41	3564.660634908151	1.368352015263536
67	2019	08	Moon	sku #41	3540.5568578412976	1.368352015263536
68	2019	09	Moon	sku #41	3385.229496863666	1.368352015263536
69	2019	07	Alpha City	sku #46	8549.878986478343	1.3390170511534552
70	2019	08	Alpha City	sku #46	7743.1670760656825	1.3390170511534552
71	2019	09	Alpha City	sku #46	7466.446976808765	1.3390170511534552
72	2019	07	Pirate Bay	sku #46	5245.23053426603	1.3390170511534552
73	2019	08	Pirate Bay	sku #46	4979.2151335856315	1.3390170511534552
74	2019	09	Pirate Bay	sku #46	4540.176849790908	1.3390170511534552
75	2019	07	Moon	sku #46	3564.660634908151	1.368352015263536
76	2019	08	Moon	sku #46	3540.5568578412976	1.368352015263536
77	2019	09	Moon	sku #46	3385.229496863666	1.368352015263536
78	2019	07	Alpha City	sku #48	9666.85206978047	2.4122367101303817
79	2019	08	Alpha City	sku #48	8860.14015936781	2.4122367101303817
80	2019	09	Alpha City	sku #48	8583.42006011089	2.4122367101303817
81	2019	07	Pirate Bay	sku #48	6362.203617568156	2.4122367101303817
82	2019	08	Pirate Bay	sku #48	6096.188216887757	2.4122367101303817
83	2019	09	Pirate Bay	sku #48	5657.149933093034	2.4122367101303817
84	2019	07	Moon	sku #48	4706.452797332896	2.465418554734084
85	2019	08	Moon	sku #48	4682.349020266042	2.465418554734084
86	2019	09	Moon	sku #48	4527.021659288411	2.465418554734084
87	2019	07	Alpha City	sku #49	8549.878986478343	1.3390170511534552
88	2019	08	Alpha City	sku #49	7743.1670760656825	1.3390170511534552
89	2019	09	Alpha City	sku #49	7466.446976808765	1.3390170511534552
90	2019	07	Pirate Bay	sku #49	5245.23053426603	1.3390170511534552
91	2019	08	Pirate Bay	sku #49	4979.2151335856315	1.3390170511534552
92	2019	09	Pirate Bay	sku #49	4540.176849790908	1.3390170511534552
93	2019	07	Alpha City	sku #25	7258.190161498897	1.3540621865596736
94	2019	08	Alpha City	sku #25	6451.478251086236	1.3540621865596736
95	2019	09	Alpha City	sku #25	6174.758151829318	1.3540621865596736
96	2019	07	Pirate Bay	sku #25	3953.5417092865837	1.3540621865596736
97	2019	08	Pirate Bay	sku #25	3687.526308606185	1.3540621865596736
98	2019	09	Pirate Bay	sku #25	3248.4880248114596	1.3540621865596736
99	2019	07	Moon	sku #25	2275.92948532219	1.6055693113630103
100	2019	08	Moon	sku #25	2251.825708255338	1.6049482205734737
101	2019	09	Moon	sku #25	2096.498347277705	1.6009458496172873
102	2019	07	Alpha City	sku #73	7258.190161498897	1.3540621865596736
103	2019	08	Alpha City	sku #73	6451.478251086236	1.3540621865596736
104	2019	09	Alpha City	sku #73	6174.758151829318	1.3540621865596736
105	2019	07	Pirate Bay	sku #73	3953.5417092865837	1.3540621865596736
106	2019	08	Pirate Bay	sku #73	3687.526308606185	1.3540621865596736
107	2019	09	Pirate Bay	sku #73	3248.4880248114596	1.3540621865596736
108	2019	07	Moon	sku #73	2275.92948532219	1.6055693113630103
109	2019	08	Moon	sku #73	2251.825708255338	1.6049482205734737
110	2019	09	Moon	sku #73	2096.498347277705	1.6009458496172873
111	2019	07	Alpha City	sku #78	5539.1288164429725	1.3540621865596736
112	2019	08	Alpha City	sku #78	4732.416906030309	1.3540621865596736
113	2019	09	Alpha City	sku #78	4455.696806773393	1.3540621865596736
114	2019	07	Pirate Bay	sku #78	2234.480364230657	1.6025731957885514
115	2019	08	Pirate Bay	sku #78	1968.4649635502583	1.5947377483522873
116	2019	09	Pirate Bay	sku #78	1529.4266797555347	1.5818059332006273
117	2019	07	Pirate Bay	sku #42	1234.6321781441684	1.7103143132818026
118	2019	08	Pirate Bay	sku #42	968.6167774637715	1.700735486390446
119	2019	09	Pirate Bay	sku #42	529.5784936690479	1.684926370455802
120	2019	07	Pirate Bay	sku #67	1234.6321781441684	1.7103143132818026
121	2019	08	Pirate Bay	sku #67	968.6167774637715	1.700735486390446
122	2019	09	Pirate Bay	sku #67	529.5784936690479	1.684926370455802
123	2019	07	Pirate Bay	sku #94	623.7026828435291	2.1148279353110384
124	2019	08	Pirate Bay	sku #94	357.6872821631323	2.0773377083552598
125	2019	09	Pirate Bay	sku #94	-81.35100163159132	2.0154629537378397
126	2019	07	Alpha City	sku #94	3928.3511350558447	1.444059210870943
127	2019	08	Alpha City	sku #94	3121.6392246431815	1.4225275800478234
128	2019	09	Alpha City	sku #94	2844.9191253862655	1.4151417335207375
129	2019	07	Alpha City	sku #106	8549.878986478343	1.3390170511534552
130	2019	08	Alpha City	sku #106	7743.1670760656825	1.3390170511534552
131	2019	09	Alpha City	sku #106	7466.446976808765	1.3390170511534552
132	2019	07	Pirate Bay	sku #106	5245.23053426603	1.3390170511534552
133	2019	08	Pirate Bay	sku #106	4979.2151335856315	1.3390170511534552
134	2019	09	Pirate Bay	sku #106	4540.176849790908	1.3390170511534552
135	2019	07	Alpha City	sku #76	4803.167034695335	1.3390170511534552
136	2019	08	Alpha City	sku #76	3996.4551242826738	1.3390170511534552
137	2019	09	Alpha City	sku #76	3719.7350250257577	1.3390170511534552
138	2019	07	Pirate Bay	sku #76	1475.0308307313408	1.553829965339264
139	2019	08	Pirate Bay	sku #76	1209.015430050942	1.5455629516543299
140	2019	09	Pirate Bay	sku #76	769.9771462562185	1.5319188656259137
141	2019	07	Moon	sku #76	-182.05131687485664	2.1473998858984267
142	2019	08	Moon	sku #76	-206.1550939417093	2.144288560579758
143	2019	09	Moon	sku #76	-361.48245491934176	2.1242387797573405
144	2019	07	Alpha City	sku #77	7215.700062522937	1.3390170511534552
145	2019	08	Alpha City	sku #77	6408.988152110275	1.3390170511534552
146	2019	09	Alpha City	sku #77	6132.268052853359	1.3390170511534552
147	2019	07	Pirate Bay	sku #77	3887.5638585589413	1.3164493480441268
148	2019	08	Pirate Bay	sku #77	3621.5484578785426	1.3164493480441268
149	2019	09	Pirate Bay	sku #77	3182.510174083819	1.3164493480441268
150	2019	07	Moon	sku #77	2230.481710952744	1.594688666723851
151	2019	08	Moon	sku #77	2206.377933885892	1.5940428701860405
152	2019	09	Moon	sku #77	2051.050572908259	1.589881327454787
153	2019	07	Alpha City	sku #97	7215.700062522937	1.3390170511534552
154	2019	08	Alpha City	sku #97	6408.988152110275	1.3390170511534552
155	2019	09	Alpha City	sku #97	6132.268052853359	1.3390170511534552
156	2019	07	Pirate Bay	sku #97	3887.5638585589413	1.3164493480441268
157	2019	08	Pirate Bay	sku #97	3621.5484578785426	1.3164493480441268
158	2019	09	Pirate Bay	sku #97	3182.510174083819	1.3164493480441268
159	2019	07	Moon	sku #97	2230.481710952744	1.594688666723851
160	2019	08	Moon	sku #97	2206.377933885892	1.5940428701860405
161	2019	09	Moon	sku #97	2051.050572908259	1.589881327454787
162	2019	07	Alpha City	sku #100	4803.167034695335	1.3390170511534552
163	2019	08	Alpha City	sku #100	3996.4551242826738	1.3390170511534552
164	2019	09	Alpha City	sku #100	3719.7350250257577	1.3390170511534552
165	2019	07	Pirate Bay	sku #100	1475.0308307313408	1.553829965339264
166	2019	08	Pirate Bay	sku #100	1209.015430050942	1.5455629516543299
167	2019	09	Pirate Bay	sku #100	769.9771462562185	1.5319188656259137
168	2019	07	Moon	sku #100	-182.05131687485664	2.1473998858984267
169	2019	08	Moon	sku #100	-206.1550939417093	2.144288560579758
170	2019	09	Moon	sku #100	-361.48245491934176	2.1242387797573405
171	2019	07	Pirate Bay	sku #105	1618.1226334462963	1.6241212968280296
172	2019	08	Pirate Bay	sku #105	1352.1072327658976	1.6144041594689542
173	2019	09	Pirate Bay	sku #105	913.068948971174	1.5983667810960969
